Creating a Distribution • distplyr
…
November 2020: Until this package gains some stability in its structure, there will be a limited number of these distributions – but there will be plenty available in the not-too-distant future.

2. Empirical Distributions

Whereas base R only has the ecdf() function to handle empirical distributions, distplyr provides full functionality with dst_empirical(). Empirical distribution of hp values in the mtcars dataset:

(hp <- dst_empirical(hp, data = mtcars))
#> finite dst
#> 
#>  probabilities :
#> # A tibble: 22 x 2
#>    location   size
#>       <dbl>  <dbl>
#>  1       52 0.0312
#>  2       62 0.0312
#>  3       65 0.0312
#>  4       66 0.0625
#>  5       91 0.0312
#>  6       93 0.0312
#>  7       95 0.0312
#>  8       97 0.0312
#>  9      105 0.0312
#> 10      109 0.0312
#> # ... with 12 more rows
…
