Step Distributions • distplyr
…
eval_quantile(d2, at = c(0.05, 0.95))

## [1]  62 175

Here’s the proportion of variance that’s reduced compared to the marginal:

1 - variance(d2) / variance(d1)

## [1] 0.8031741

You can extract the step discontinuities in any distribution, using the discontinuities() function. It will give you the location of the discontinuities, and the size of the jump in the cdf:

discontinuities(d2)

## # A tibble: 22 x 2
##    location     size
##       <dbl>    <dbl>
##  1       52 0.00147 
##  2       62 0.121   
##  3       65 0.000838
##  4       66 0.00425 
##  5       91 0.0602  
##  6       93 0.0297  
##  7       95 0.114   
##  8       97 0.0596  
##  9      105 0.00135 
## 10      109 0.0622  
## # … with 12 more rows
…
